%YAML 1.1
%TAG !u! tag:unity3d.com,2011:
--- !u!21 &2100000
Material:
  serializedVersion: 6
  m_ObjectHideFlags: 0
  m_CorrespondingSourceObject: {fileID: 0}
  m_PrefabInstance: {fileID: 0}
  m_PrefabAsset: {fileID: 0}
  m_Name: StylizedWater 1
  m_Shader: {fileID: 4800000, guid: 4a91c9577c91733478297518e0cb57ed, type: 3}
  m_ShaderKeywords: _SECONDARYFOAMALWAYSVISIBLE_ON _SHADOWS_ON
  m_LightmapFlags: 1
  m_EnableInstancingVariants: 0
  m_DoubleSidedGI: 0
  m_CustomRenderQueue: -1
  stringTagMap: {}
  disabledShaderPasses: []
  m_SavedProperties:
    serializedVersion: 3
    m_TexEnvs:
    - _DistortionTexture:
        m_Texture: {fileID: 2800000, guid: a67d2228caf588945b19a42fbd3c3967, type: 3}
        m_Scale: {x: 1, y: 1}
        m_Offset: {x: 0, y: 0}
    - _FoamTexture:
        m_Texture: {fileID: 2800000, guid: a24ddeee41b659a42b3e031e47a80ae2, type: 3}
        m_Scale: {x: 1, y: 1}
        m_Offset: {x: 0, y: 0}
    - _ReflectionTex:
        m_Texture: {fileID: 0}
        m_Scale: {x: 1, y: 1}
        m_Offset: {x: 0, y: 0}
    - _WaterDistortionTex:
        m_Texture: {fileID: 2800000, guid: a67d2228caf588945b19a42fbd3c3967, type: 3}
        m_Scale: {x: 1, y: 1}
        m_Offset: {x: 0, y: 0}
    - _node_2516:
        m_Texture: {fileID: 0}
        m_Scale: {x: 1, y: 1}
        m_Offset: {x: 0, y: 0}
    - _node_5673:
        m_Texture: {fileID: 0}
        m_Scale: {x: 1, y: 1}
        m_Offset: {x: 0, y: 0}
    m_Floats:
    - _Cutoff: 0.5
    - _FresnelExp: 3.340517
    - _GradientPosition1: 0
    - _GradientPosition2: 0
    - _LightColorIntensity: 0.698
    - _MainFoamIntensity: 37.6
    - _MainFoamOpacity: 0.56
    - _MainFoamScale: 87.67
    - _MainFoamSpeed: 0.2
    - _Opacity: 0
    - _OpacityDepth: 5.27
    - _RealTimeReflection: 1
    - _ReflectionsIntensity: 1.33
    - _RefractionIntensity: 1.71
    - _Roughness: 0.874
    - _SecondaryFoamAlwaysVisible: 0
    - _SecondaryFoamIntensity: 3.8
    - _SecondaryFoamOpacity: 0.27
    - _SecondaryFoamScale: 57.01
    - _ShadowIntensity: 1
    - _Shadows: 1
    - _ShadowsIntensity: 1
    - _SpecularIntensity: 1
    - _TurbulenceDistortionIntesity: 0.73
    - _TurbulenceScale: 15.53
    - _VertexOffset: 0
    - _WaveDistortionIntensity: 0.59
    - _WavesAmplitude: -0.03
    - _WavesDirection: 203
    - _WavesIntensity: 1.62
    - _WavesSpeed: 0.63
    m_Colors:
    - _DepthGradient1: {r: 0, g: 0.06771145, b: 0.3962264, a: 1}
    - _DepthGradient2: {r: 0, g: 0.023415692, b: 0.9622642, a: 1}
    - _DepthGradient3: {r: 0, g: 0.757931, b: 1, a: 1}
    - _FoamColor: {r: 1, g: 1, b: 1, a: 1}
    - _FresnelColor: {r: 0.278877, g: 0.20392156, b: 0.8862745, a: 1}
    - _ShadowColor: {r: 0.009191178, g: 0.033871744, b: 0.125, a: 1}
