%YAML 1.1
%TAG !u! tag:unity3d.com,2011:
--- !u!74 &7400000
AnimationClip:
  m_ObjectHideFlags: 0
  m_CorrespondingSourceObject: {fileID: 0}
  m_PrefabInstance: {fileID: 0}
  m_PrefabAsset: {fileID: 0}
  m_Name: FirstPress
  serializedVersion: 6
  m_Legacy: 0
  m_Compressed: 0
  m_UseHighQualityCurve: 1
  m_RotationCurves: []
  m_CompressedRotationCurves: []
  m_EulerCurves: []
  m_PositionCurves: []
  m_ScaleCurves: []
  m_FloatCurves: []
  m_PPtrCurves:
  - curve:
    - time: 0
      value: {fileID: 21300000, guid: 55c9b3b267f3a0e4db7471718d5b31bb, type: 3}
    - time: 0.083333336
      value: {fileID: 21300000, guid: dce53d060c3f56945b56cb62486e4951, type: 3}
    - time: 0.16666667
      value: {fileID: 21300000, guid: 922ecb1c77f59d042b4c734b92e02566, type: 3}
    - time: 0.25
      value: {fileID: 21300000, guid: 3ea70aeaefbcdb249a431c18a1c03b79, type: 3}
    - time: 0.33333334
      value: {fileID: 21300000, guid: eb3493cf544a0714d805aec1e465ad80, type: 3}
    - time: 0.41666666
      value: {fileID: 21300000, guid: ec674cd2b4e89be4497389857c25a586, type: 3}
    - time: 0.5
      value: {fileID: 21300000, guid: 7d9d2c5140018fd4a95539492fa88e6b, type: 3}
    - time: 0.5833333
      value: {fileID: 21300000, guid: fe681afda717078479084ddaa0ced0a1, type: 3}
    - time: 0.6666667
      value: {fileID: 21300000, guid: 5365833196dc8564f9777799335ac838, type: 3}
    - time: 0.75
      value: {fileID: 21300000, guid: d8c1f80370f332847ae7b130e2950089, type: 3}
    - time: 0.8333333
      value: {fileID: 21300000, guid: 96e5270c76210ea48bba4657b5952ba4, type: 3}
    attribute: m_Sprite
    path: 
    classID: 212
    script: {fileID: 0}
  m_SampleRate: 12
  m_WrapMode: 0
  m_Bounds:
    m_Center: {x: 0, y: 0, z: 0}
    m_Extent: {x: 0, y: 0, z: 0}
  m_ClipBindingConstant:
    genericBindings:
    - serializedVersion: 2
      path: 0
      attribute: 0
      script: {fileID: 0}
      typeID: 212
      customType: 23
      isPPtrCurve: 1
    pptrCurveMapping:
    - {fileID: 21300000, guid: 55c9b3b267f3a0e4db7471718d5b31bb, type: 3}
    - {fileID: 21300000, guid: dce53d060c3f56945b56cb62486e4951, type: 3}
    - {fileID: 21300000, guid: 922ecb1c77f59d042b4c734b92e02566, type: 3}
    - {fileID: 21300000, guid: 3ea70aeaefbcdb249a431c18a1c03b79, type: 3}
    - {fileID: 21300000, guid: eb3493cf544a0714d805aec1e465ad80, type: 3}
    - {fileID: 21300000, guid: ec674cd2b4e89be4497389857c25a586, type: 3}
    - {fileID: 21300000, guid: 7d9d2c5140018fd4a95539492fa88e6b, type: 3}
    - {fileID: 21300000, guid: fe681afda717078479084ddaa0ced0a1, type: 3}
    - {fileID: 21300000, guid: 5365833196dc8564f9777799335ac838, type: 3}
    - {fileID: 21300000, guid: d8c1f80370f332847ae7b130e2950089, type: 3}
    - {fileID: 21300000, guid: 96e5270c76210ea48bba4657b5952ba4, type: 3}
  m_AnimationClipSettings:
    serializedVersion: 2
    m_AdditiveReferencePoseClip: {fileID: 0}
    m_AdditiveReferencePoseTime: 0
    m_StartTime: 0
    m_StopTime: 0.9166667
    m_OrientationOffsetY: 0
    m_Level: 0
    m_CycleOffset: 0
    m_HasAdditiveReferencePose: 0
    m_LoopTime: 0
    m_LoopBlend: 0
    m_LoopBlendOrientation: 0
    m_LoopBlendPositionY: 0
    m_LoopBlendPositionXZ: 0
    m_KeepOriginalOrientation: 0
    m_KeepOriginalPositionY: 1
    m_KeepOriginalPositionXZ: 0
    m_HeightFromFeet: 0
    m_Mirror: 0
  m_EditorCurves: []
  m_EulerEditorCurves: []
  m_HasGenericRootTransform: 0
  m_HasMotionFloatCurves: 0
  m_Events: []
