%YAML 1.1
%TAG !u! tag:unity3d.com,2011:
--- !u!74 &7400000
AnimationClip:
  m_ObjectHideFlags: 0
  m_CorrespondingSourceObject: {fileID: 0}
  m_PrefabInstance: {fileID: 0}
  m_PrefabAsset: {fileID: 0}
  m_Name: FourthPress
  serializedVersion: 6
  m_Legacy: 0
  m_Compressed: 0
  m_UseHighQualityCurve: 1
  m_RotationCurves: []
  m_CompressedRotationCurves: []
  m_EulerCurves: []
  m_PositionCurves: []
  m_ScaleCurves: []
  m_FloatCurves: []
  m_PPtrCurves:
  - curve:
    - time: 0
      value: {fileID: 21300000, guid: 18e549f5ac0da0b4cac97a88fcc1ee25, type: 3}
    - time: 0.083333336
      value: {fileID: 21300000, guid: 3ccc6c395f92c9c4daae83e8a6433184, type: 3}
    - time: 0.16666667
      value: {fileID: 21300000, guid: 369d0fb37cf8c6547aa3b460566ec767, type: 3}
    - time: 0.25
      value: {fileID: 21300000, guid: 2cdcad205eff99d4782afb1287ad52bd, type: 3}
    - time: 0.33333334
      value: {fileID: 21300000, guid: 6f435cb5054f6e04aaa2a97bd0872fda, type: 3}
    - time: 0.41666666
      value: {fileID: 21300000, guid: 15ef03b2d2307134d8aa44a65d9b8f82, type: 3}
    - time: 0.5
      value: {fileID: 21300000, guid: c129e4452153efc48a723fde159bca1b, type: 3}
    - time: 0.5833333
      value: {fileID: 21300000, guid: daf5bff07c8ecb14e82cc54221d89a54, type: 3}
    - time: 0.6666667
      value: {fileID: 21300000, guid: b577fec7c0fd84e46be5c114e0642f80, type: 3}
    - time: 0.75
      value: {fileID: 21300000, guid: 37b552e2a17bad84288ac7e34e601545, type: 3}
    attribute: m_Sprite
    path: 
    classID: 212
    script: {fileID: 0}
  m_SampleRate: 12
  m_WrapMode: 0
  m_Bounds:
    m_Center: {x: 0, y: 0, z: 0}
    m_Extent: {x: 0, y: 0, z: 0}
  m_ClipBindingConstant:
    genericBindings:
    - serializedVersion: 2
      path: 0
      attribute: 0
      script: {fileID: 0}
      typeID: 212
      customType: 23
      isPPtrCurve: 1
    pptrCurveMapping:
    - {fileID: 21300000, guid: 18e549f5ac0da0b4cac97a88fcc1ee25, type: 3}
    - {fileID: 21300000, guid: 3ccc6c395f92c9c4daae83e8a6433184, type: 3}
    - {fileID: 21300000, guid: 369d0fb37cf8c6547aa3b460566ec767, type: 3}
    - {fileID: 21300000, guid: 2cdcad205eff99d4782afb1287ad52bd, type: 3}
    - {fileID: 21300000, guid: 6f435cb5054f6e04aaa2a97bd0872fda, type: 3}
    - {fileID: 21300000, guid: 15ef03b2d2307134d8aa44a65d9b8f82, type: 3}
    - {fileID: 21300000, guid: c129e4452153efc48a723fde159bca1b, type: 3}
    - {fileID: 21300000, guid: daf5bff07c8ecb14e82cc54221d89a54, type: 3}
    - {fileID: 21300000, guid: b577fec7c0fd84e46be5c114e0642f80, type: 3}
    - {fileID: 21300000, guid: 37b552e2a17bad84288ac7e34e601545, type: 3}
  m_AnimationClipSettings:
    serializedVersion: 2
    m_AdditiveReferencePoseClip: {fileID: 0}
    m_AdditiveReferencePoseTime: 0
    m_StartTime: 0
    m_StopTime: 0.8333333
    m_OrientationOffsetY: 0
    m_Level: 0
    m_CycleOffset: 0
    m_HasAdditiveReferencePose: 0
    m_LoopTime: 0
    m_LoopBlend: 0
    m_LoopBlendOrientation: 0
    m_LoopBlendPositionY: 0
    m_LoopBlendPositionXZ: 0
    m_KeepOriginalOrientation: 0
    m_KeepOriginalPositionY: 1
    m_KeepOriginalPositionXZ: 0
    m_HeightFromFeet: 0
    m_Mirror: 0
  m_EditorCurves: []
  m_EulerEditorCurves: []
  m_HasGenericRootTransform: 0
  m_HasMotionFloatCurves: 0
  m_Events: []
