%YAML 1.1
%TAG !u! tag:unity3d.com,2011:
--- !u!74 &7400000
AnimationClip:
  m_ObjectHideFlags: 0
  m_CorrespondingSourceObject: {fileID: 0}
  m_PrefabInstance: {fileID: 0}
  m_PrefabAsset: {fileID: 0}
  m_Name: ThirdPress
  serializedVersion: 6
  m_Legacy: 0
  m_Compressed: 0
  m_UseHighQualityCurve: 1
  m_RotationCurves: []
  m_CompressedRotationCurves: []
  m_EulerCurves: []
  m_PositionCurves: []
  m_ScaleCurves: []
  m_FloatCurves: []
  m_PPtrCurves:
  - curve:
    - time: 0
      value: {fileID: 21300000, guid: d1542d864634a17418f9249051756fae, type: 3}
    - time: 0.083333336
      value: {fileID: 21300000, guid: f57d1526da6bc9e439f27c2f70526bd4, type: 3}
    - time: 0.16666667
      value: {fileID: 21300000, guid: eef74cb2a567d054a845d905d0478d44, type: 3}
    - time: 0.25
      value: {fileID: 21300000, guid: 4acd7d20ed08ba84092d5cc021c5da52, type: 3}
    - time: 0.33333334
      value: {fileID: 21300000, guid: 95a8a16f2190c6d47b72a918f28207f5, type: 3}
    - time: 0.41666666
      value: {fileID: 21300000, guid: 7ab858d86e50a1b489923d533afc41b6, type: 3}
    - time: 0.5
      value: {fileID: 21300000, guid: 40413fde78aa5484cbdd4818e8bb053b, type: 3}
    - time: 0.5833333
      value: {fileID: 21300000, guid: 48807c55dc455a94cb60998620fc07c1, type: 3}
    - time: 0.6666667
      value: {fileID: 21300000, guid: 9ba5d5bb4cbdc8a4e9b77636bcce89f1, type: 3}
    attribute: m_Sprite
    path: 
    classID: 212
    script: {fileID: 0}
  m_SampleRate: 12
  m_WrapMode: 0
  m_Bounds:
    m_Center: {x: 0, y: 0, z: 0}
    m_Extent: {x: 0, y: 0, z: 0}
  m_ClipBindingConstant:
    genericBindings:
    - serializedVersion: 2
      path: 0
      attribute: 0
      script: {fileID: 0}
      typeID: 212
      customType: 23
      isPPtrCurve: 1
    pptrCurveMapping:
    - {fileID: 21300000, guid: d1542d864634a17418f9249051756fae, type: 3}
    - {fileID: 21300000, guid: f57d1526da6bc9e439f27c2f70526bd4, type: 3}
    - {fileID: 21300000, guid: eef74cb2a567d054a845d905d0478d44, type: 3}
    - {fileID: 21300000, guid: 4acd7d20ed08ba84092d5cc021c5da52, type: 3}
    - {fileID: 21300000, guid: 95a8a16f2190c6d47b72a918f28207f5, type: 3}
    - {fileID: 21300000, guid: 7ab858d86e50a1b489923d533afc41b6, type: 3}
    - {fileID: 21300000, guid: 40413fde78aa5484cbdd4818e8bb053b, type: 3}
    - {fileID: 21300000, guid: 48807c55dc455a94cb60998620fc07c1, type: 3}
    - {fileID: 21300000, guid: 9ba5d5bb4cbdc8a4e9b77636bcce89f1, type: 3}
  m_AnimationClipSettings:
    serializedVersion: 2
    m_AdditiveReferencePoseClip: {fileID: 0}
    m_AdditiveReferencePoseTime: 0
    m_StartTime: 0
    m_StopTime: 0.75
    m_OrientationOffsetY: 0
    m_Level: 0
    m_CycleOffset: 0
    m_HasAdditiveReferencePose: 0
    m_LoopTime: 0
    m_LoopBlend: 0
    m_LoopBlendOrientation: 0
    m_LoopBlendPositionY: 0
    m_LoopBlendPositionXZ: 0
    m_KeepOriginalOrientation: 0
    m_KeepOriginalPositionY: 1
    m_KeepOriginalPositionXZ: 0
    m_HeightFromFeet: 0
    m_Mirror: 0
  m_EditorCurves: []
  m_EulerEditorCurves: []
  m_HasGenericRootTransform: 0
  m_HasMotionFloatCurves: 0
  m_Events: []
